-- phpMyAdmin SQL Dump
-- version 4.7.4
-- https://www.phpmyadmin.net/
--
-- Host: 127.0.0.1:3306
-- Generation Time: Jul 27, 2020 at 02:33 PM
-- Server version: 5.7.19
-- PHP Version: 7.1.9

SET SQL_MODE = "NO_AUTO_VALUE_ON_ZERO";
SET AUTOCOMMIT = 0;
START TRANSACTION;
SET time_zone = "+00:00";

--
-- Database: `commerce`
--

-- --------------------------------------------------------

--
-- Table structure for table `ec_product`
--

DROP TABLE IF EXISTS `ec_product`;
CREATE TABLE IF NOT EXISTS `ec_product` (
  `_ID` int(11) NOT NULL AUTO_INCREMENT,
  `_Name` varchar(256) DEFAULT NULL,
  `_Des` varchar(1000) DEFAULT NULL,
  `_CatID` int(11) DEFAULT NULL,
  `_SubcatID` int(11) DEFAULT NULL,
  `_Image` text,
  `_Price` varchar(255) DEFAULT NULL,
  `_Sellprice` int(100) DEFAULT NULL,
  `_Special` enum('0','1') DEFAULT NULL,
  `_Status` int(11) DEFAULT NULL,
  `_Specification` json DEFAULT NULL,
  `_Adddetails` varchar(1000) DEFAULT NULL,
  `_Created` datetime(6) DEFAULT NULL,
  PRIMARY KEY (`_ID`),
  KEY `_CatID` (`_CatID`),
  KEY `_SubcatID` (`_SubcatID`),
  KEY `_Special` (`_Special`)
) ENGINE=MyISAM AUTO_INCREMENT=18 DEFAULT CHARSET=latin1;

--
-- Dumping data for table `ec_product`
--

INSERT INTO `ec_product` (`_ID`, `_Name`, `_Des`, `_CatID`, `_SubcatID`, `_Image`, `_Price`, `_Sellprice`, `_Special`, `_Status`, `_Specification`, `_Adddetails`, `_Created`) VALUES
(1, 'Slim Men Dark Blue Jeans', 'L,Zard Regular Fit Men\'s Jeans - Crafted from cotton to cater to your comfort demands, this pair of Mid rise jeans from L,zard offers you a fashionable look effortlessly.', 1, 5, '[{\"name\":\"1595661823_PRO_1.jpeg\",\"thumb\":\"1595661823_PRO_1_thumb.jpeg\",\"medium\":\"1595661823_PRO_1_med.jpeg\",\"cat\":\"1595661823_PRO_1_cat.jpeg\",\"large\":\"1595661823_PRO_1_large.jpeg\",\"size\":34021},{\"name\":\"1595661857_PRO_1.jpeg\",\"thumb\":\"1595661857_PRO_1_thumb.jpeg\",\"medium\":\"1595661857_PRO_1_med.jpeg\",\"cat\":\"1595661857_PRO_1_cat.jpeg\",\"large\":\"1595661857_PRO_1_large.jpeg\",\"size\":60033},{\"name\":\"1595661879_PRO_1.jpeg\",\"thumb\":\"1595661879_PRO_1_thumb.jpeg\",\"medium\":\"1595661879_PRO_1_med.jpeg\",\"cat\":\"1595661879_PRO_1_cat.jpeg\",\"large\":\"1595661879_PRO_1_large.jpeg\",\"size\":32513},{\"name\":\"1595661905_PRO_1.jpeg\",\"thumb\":\"1595661905_PRO_1_thumb.jpeg\",\"medium\":\"1595661905_PRO_1_med.jpeg\",\"cat\":\"1595661905_PRO_1_cat.jpeg\",\"large\":\"1595661905_PRO_1_large.jpeg\",\"size\":34208}]', '2000', 999, '1', 1, NULL, '{\"key\":[\"Fabric\",\"Suitable For\"],\"value\":[\" Cotton Blend\",\" Western Wear\"]}', '2020-07-25 07:20:49.000000'),
(2, 'Striped Men Hooded Neck Maroon T-Shirt', 'This relaxed fit tall men\'s T-shirt has a generous fit for taller men with longer sleeves and body. Equipped with a double stitched seamless rib collar, shoulder-to-shoulder taping, double-needle sleeve and bottom hem. The material is made from 100% cotton and has a fabric weight of 5.6 oz.', 1, 4, '[{\"name\":\"1595662131_PRO_2.jpeg\",\"thumb\":\"1595662131_PRO_2_thumb.jpeg\",\"medium\":\"1595662131_PRO_2_med.jpeg\",\"cat\":\"1595662131_PRO_2_cat.jpeg\",\"large\":\"1595662131_PRO_2_large.jpeg\",\"size\":22946},{\"name\":\"1595662138_PRO_2.jpeg\",\"thumb\":\"1595662138_PRO_2_thumb.jpeg\",\"medium\":\"1595662138_PRO_2_med.jpeg\",\"cat\":\"1595662138_PRO_2_cat.jpeg\",\"large\":\"1595662138_PRO_2_large.jpeg\",\"size\":31912},{\"name\":\"1595662144_PRO_2.jpeg\",\"thumb\":\"1595662144_PRO_2_thumb.jpeg\",\"medium\":\"1595662144_PRO_2_med.jpeg\",\"cat\":\"1595662144_PRO_2_cat.jpeg\",\"large\":\"1595662144_PRO_2_large.jpeg\",\"size\":26191}]', '299', 200, '1', 1, NULL, '{\"key\":[\"Type\",\"Fit\",\"Model Name\"],\"value\":[\"Hooded Neck\",\" Regular\",\"HM-1001-Maroon Black\"]}', '2020-07-25 07:27:16.000000'),
(3, 'Lightweight Gymwear Sport Running Shoes For Men Walking Shoes For Men', 'Make your Sports look with faded jeans and a T-shirt more interesting with this pair of shoes from DIGITRENDZZ. Stay comfortable all day with the synthetic inner of these shoes. The shoes are highly durable apart from looking very stylish.', 1, 6, '[{\"name\":\"1595662560_PRO_3.jpeg\",\"thumb\":\"1595662560_PRO_3_thumb.jpeg\",\"medium\":\"1595662560_PRO_3_med.jpeg\",\"cat\":\"1595662560_PRO_3_cat.jpeg\",\"large\":\"1595662560_PRO_3_large.jpeg\",\"size\":29362},{\"name\":\"1595662567_PRO_3.jpeg\",\"thumb\":\"1595662567_PRO_3_thumb.jpeg\",\"medium\":\"1595662567_PRO_3_med.jpeg\",\"cat\":\"1595662567_PRO_3_cat.jpeg\",\"large\":\"1595662567_PRO_3_large.jpeg\",\"size\":50774},{\"name\":\"1595662573_PRO_3.jpeg\",\"thumb\":\"1595662573_PRO_3_thumb.jpeg\",\"medium\":\"1595662573_PRO_3_med.jpeg\",\"cat\":\"1595662573_PRO_3_cat.jpeg\",\"large\":\"1595662573_PRO_3_large.jpeg\",\"size\":45102}]', '355', 300, '1', 1, NULL, '{\"key\":[\"Tip Shape\",\"Closure\",\"Color\"],\"value\":[\" Round\",\" Lace-Ups\",\" Black\"]}', '2020-07-25 07:33:06.000000'),
(4, 'Men Solid Formal Slim Shirt', '5th Anfold is a profeesional clothing sales company which is collection of extra-ordinary shirts.5th Anfold try their best to make every piece of shirt with is class comfort porche design and lead fashion trends.Through exquisite technology,high quality fabrics,a variety of options,bright colours,with each garment.5th Anfold offers every customer high quality clothing showing their different unique personality,styles and the grade of life and culture.', 1, 13, '[{\"name\":\"1595662885_PRO_4.jpg\",\"thumb\":\"1595662885_PRO_4_thumb.jpg\",\"medium\":\"1595662885_PRO_4_med.jpg\",\"cat\":\"1595662885_PRO_4_cat.jpg\",\"large\":\"1595662885_PRO_4_large.jpg\",\"size\":28051},{\"name\":\"1595662890_PRO_4.jpg\",\"thumb\":\"1595662890_PRO_4_thumb.jpg\",\"medium\":\"1595662890_PRO_4_med.jpg\",\"cat\":\"1595662890_PRO_4_cat.jpg\",\"large\":\"1595662890_PRO_4_large.jpg\",\"size\":25588}]', '549', 500, '1', 1, NULL, '{\"key\":[\"White Fabric Care\",\"Suitable For\",\"Collar\"],\"value\":[\"Gentle Machine Wash\",\" Western Wear\",\" Slim\"]}', '2020-07-25 07:37:44.000000'),
(5, 'Jogger Fit Women Dark Blue Jeans', 'Jogger Fit', 2, 9, '[{\"name\":\"1595663169_PRO_5.jpeg\",\"thumb\":\"1595663169_PRO_5_thumb.jpeg\",\"medium\":\"1595663169_PRO_5_med.jpeg\",\"cat\":\"1595663169_PRO_5_cat.jpeg\",\"large\":\"1595663169_PRO_5_large.jpeg\",\"size\":33566},{\"name\":\"1595663174_PRO_5.jpeg\",\"thumb\":\"1595663174_PRO_5_thumb.jpeg\",\"medium\":\"1595663174_PRO_5_med.jpeg\",\"cat\":\"1595663174_PRO_5_cat.jpeg\",\"large\":\"1595663174_PRO_5_large.jpeg\",\"size\":34166},{\"name\":\"1595663179_PRO_5.jpeg\",\"thumb\":\"1595663179_PRO_5_thumb.jpeg\",\"medium\":\"1595663179_PRO_5_med.jpeg\",\"cat\":\"1595663179_PRO_5_cat.jpeg\",\"large\":\"1595663179_PRO_5_large.jpeg\",\"size\":35909}]', '300', 250, '1', 1, NULL, '{\"key\":[\"Reversible\",\"Women Suitable For\",\"Pattern\"],\"value\":[\"No\",\"Western Wear\",\" Graphic Print\"]}', '2020-07-25 07:43:57.000000'),
(6, 'Printed Women Round Neck T-shirt', 'A super soft and smooth T-shirt for full-figured ladies that\'s a joy to wear: meet the curvy fit tee. The comfy shirt is the perfect companion for lounging around the house or on trips on the town. Choose a color that corresponds to your wardrobe, and enjoy the softly shaped fabrics to compliment your curves.', 2, 8, '[{\"name\":\"1595663438_PRO_6.jpeg\",\"thumb\":\"1595663438_PRO_6_thumb.jpeg\",\"medium\":\"1595663438_PRO_6_med.jpeg\",\"cat\":\"1595663438_PRO_6_cat.jpeg\",\"large\":\"1595663438_PRO_6_large.jpeg\",\"size\":75383},{\"name\":\"1595663443_PRO_6.jpeg\",\"thumb\":\"1595663443_PRO_6_thumb.jpeg\",\"medium\":\"1595663443_PRO_6_med.jpeg\",\"cat\":\"1595663443_PRO_6_cat.jpeg\",\"large\":\"1595663443_PRO_6_large.jpeg\",\"size\":52596},{\"name\":\"1595663450_PRO_6.jpeg\",\"thumb\":\"1595663450_PRO_6_thumb.jpeg\",\"medium\":\"1595663450_PRO_6_med.jpeg\",\"cat\":\"1595663450_PRO_6_cat.jpeg\",\"large\":\"1595663450_PRO_6_large.jpeg\",\"size\":36637},{\"name\":\"1595663456_PRO_6.jpeg\",\"thumb\":\"1595663456_PRO_6_thumb.jpeg\",\"medium\":\"1595663456_PRO_6_med.jpeg\",\"cat\":\"1595663456_PRO_6_cat.jpeg\",\"large\":\"1595663456_PRO_6_large.jpeg\",\"size\":42089}]', '799', 720, '1', 1, NULL, '{\"key\":[\"Fit\",\"Pattern\"],\"value\":[\" Regular\",\"Printed\"]}', '2020-07-25 07:48:28.000000'),
(7, 'Walking Shoes For Women', 'Allow your pair of shoes to air on a regular basis. This helps them retain their natural shape; Dry shoes at room temperature only. ', 2, 10, '[{\"name\":\"1595663804_PRO_7.jpeg\",\"thumb\":\"1595663804_PRO_7_thumb.jpeg\",\"medium\":\"1595663804_PRO_7_med.jpeg\",\"cat\":\"1595663804_PRO_7_cat.jpeg\",\"large\":\"1595663804_PRO_7_large.jpeg\",\"size\":57268},{\"name\":\"1595663808_PRO_7.jpeg\",\"thumb\":\"1595663808_PRO_7_thumb.jpeg\",\"medium\":\"1595663808_PRO_7_med.jpeg\",\"cat\":\"1595663808_PRO_7_cat.jpeg\",\"large\":\"1595663808_PRO_7_large.jpeg\",\"size\":57708},{\"name\":\"1595663816_PRO_7.jpeg\",\"thumb\":\"1595663816_PRO_7_thumb.jpeg\",\"medium\":\"1595663816_PRO_7_med.jpeg\",\"cat\":\"1595663816_PRO_7_cat.jpeg\",\"large\":\"1595663816_PRO_7_large.jpeg\",\"size\":53078},{\"name\":\"1595663823_PRO_7.jpeg\",\"thumb\":\"1595663823_PRO_7_thumb.jpeg\",\"medium\":\"1595663823_PRO_7_med.jpeg\",\"cat\":\"1595663823_PRO_7_cat.jpeg\",\"large\":\"1595663823_PRO_7_large.jpeg\",\"size\":58059}]', '599', 550, '1', 1, NULL, '{\"key\":[\"Color\",\"Occasion\",\"Upper Pattern\"],\"value\":[\"Grey, Pink\",\" Sports\",\"Mesh\"]}', '2020-07-25 07:55:43.000000'),
(8, 'Women\'s Pique Polo Shirt', 'Make an impression in this classic and durable women’s polo. A timeless, perfect companion for the office, the golf course, or everyday wear.\r\n100% cotton | Heavyweight fabric (6 oz)\r\nFlattering feminine fit\r\nThree-button closure\r\nTopstitching for a crisp finish throughout\r\nImported; processed and printed in the U.S.A.', 2, 7, '[{\"name\":\"1595664248_PRO_8.png\",\"thumb\":\"1595664248_PRO_8_thumb.png\",\"medium\":\"1595664248_PRO_8_med.png\",\"cat\":\"1595664248_PRO_8_cat.png\",\"large\":\"1595664248_PRO_8_large.png\",\"size\":203604},{\"name\":\"1595664267_PRO_8.jpg\",\"thumb\":\"1595664267_PRO_8_thumb.jpg\",\"medium\":\"1595664267_PRO_8_med.jpg\",\"cat\":\"1595664267_PRO_8_cat.jpg\",\"large\":\"1595664267_PRO_8_large.jpg\",\"size\":57039}]', '100', 80, '1', 1, NULL, NULL, '2020-07-25 08:01:13.000000'),
(9, 'Slim Men White Jeans', '• Stylish Washed Jeans with Zip Fly & Buttoned Closure • Cotton Blend with Stretch Fabric - To give you extra comfort and flexibility • Slim Fit; Mid-Rise; Regular Length • Washed Style ; Perfect for Casual, Evening & Party wear • Wash Care - Mild Wash ; Wash dark colors separately • Disclaimer - There may be slight variation in shade and colour due to photographic effects and monitor settings.', 1, 5, '[{\"name\":\"1595668848_PRO_9.jpeg\",\"thumb\":\"1595668848_PRO_9_thumb.jpeg\",\"medium\":\"1595668848_PRO_9_med.jpeg\",\"cat\":\"1595668848_PRO_9_cat.jpeg\",\"large\":\"1595668848_PRO_9_large.jpeg\",\"size\":25663},{\"name\":\"1595668856_PRO_9.jpeg\",\"thumb\":\"1595668856_PRO_9_thumb.jpeg\",\"medium\":\"1595668856_PRO_9_med.jpeg\",\"cat\":\"1595668856_PRO_9_cat.jpeg\",\"large\":\"1595668856_PRO_9_large.jpeg\",\"size\":28589},{\"name\":\"1595668870_PRO_9.jpeg\",\"thumb\":\"1595668870_PRO_9_thumb.jpeg\",\"medium\":\"1595668870_PRO_9_med.jpeg\",\"cat\":\"1595668870_PRO_9_cat.jpeg\",\"large\":\"1595668870_PRO_9_large.jpeg\",\"size\":27216}]', '494', 400, '1', 1, NULL, '{\"key\":[\"Stretchable\",\"Faded\"],\"value\":[\"Yes\",\" Clean Look\"]}', '2020-07-25 09:19:40.000000'),
(10, 'Regular Men Blue Jeans', 'best quality', 1, 5, '[{\"name\":\"1595669200_PRO_10.jpeg\",\"thumb\":\"1595669200_PRO_10_thumb.jpeg\",\"medium\":\"1595669200_PRO_10_med.jpeg\",\"cat\":\"1595669200_PRO_10_cat.jpeg\",\"large\":\"1595669200_PRO_10_large.jpeg\",\"size\":40692},{\"name\":\"1595669212_PRO_10.jpeg\",\"thumb\":\"1595669212_PRO_10_thumb.jpeg\",\"medium\":\"1595669212_PRO_10_med.jpeg\",\"cat\":\"1595669212_PRO_10_cat.jpeg\",\"large\":\"1595669212_PRO_10_large.jpeg\",\"size\":44795}]', '640', 600, '1', 1, NULL, NULL, '2020-07-25 09:26:19.000000'),
(11, 'Slim Men Blue Jeans', 'zsfdsf', 1, 5, '[{\"name\":\"1595669332_PRO_11.jpeg\",\"thumb\":\"1595669332_PRO_11_thumb.jpeg\",\"medium\":\"1595669332_PRO_11_med.jpeg\",\"cat\":\"1595669332_PRO_11_cat.jpeg\",\"large\":\"1595669332_PRO_11_large.jpeg\",\"size\":36227},{\"name\":\"1595669353_PRO_11.jpeg\",\"thumb\":\"1595669353_PRO_11_thumb.jpeg\",\"medium\":\"1595669353_PRO_11_med.jpeg\",\"cat\":\"1595669353_PRO_11_cat.jpeg\",\"large\":\"1595669353_PRO_11_large.jpeg\",\"size\":36982}]', '854', 800, '1', 0, NULL, NULL, '2020-07-25 09:28:15.000000'),
(12, 'Slim Women Blue Jeans', 'fhgg', 2, 9, '[{\"name\":\"1595685768_PRO_12.jpeg\",\"thumb\":\"1595685768_PRO_12_thumb.jpeg\",\"medium\":\"1595685768_PRO_12_med.jpeg\",\"cat\":\"1595685768_PRO_12_cat.jpeg\",\"large\":\"1595685768_PRO_12_large.jpeg\",\"size\":38265},{\"name\":\"1595685773_PRO_12.jpeg\",\"thumb\":\"1595685773_PRO_12_thumb.jpeg\",\"medium\":\"1595685773_PRO_12_med.jpeg\",\"cat\":\"1595685773_PRO_12_cat.jpeg\",\"large\":\"1595685773_PRO_12_large.jpeg\",\"size\":40194}]', '400', 350, '1', 1, NULL, NULL, '2020-07-25 14:01:48.000000'),
(13, 'Skinny Women Black Jeans', 'fdh', 2, 9, '[{\"name\":\"1595685864_PRO_13.jpeg\",\"thumb\":\"1595685864_PRO_13_thumb.jpeg\",\"medium\":\"1595685864_PRO_13_med.jpeg\",\"cat\":\"1595685864_PRO_13_cat.jpeg\",\"large\":\"1595685864_PRO_13_large.jpeg\",\"size\":24972},{\"name\":\"1595685920_PRO_13.jpeg\",\"thumb\":\"1595685920_PRO_13_thumb.jpeg\",\"medium\":\"1595685920_PRO_13_med.jpeg\",\"cat\":\"1595685920_PRO_13_cat.jpeg\",\"large\":\"1595685920_PRO_13_large.jpeg\",\"size\":25721}]', '700', 650, '1', 1, NULL, NULL, '2020-07-25 14:03:55.000000'),
(14, 'Striped Men Round Neck Yellow T-Shirt', 'sdsad', 1, 13, '[{\"name\":\"1595848147.7085_PRO_14.jpeg\",\"thumb\":\"1595848147.7085_PRO_14_thumb.jpeg\",\"medium\":\"1595848147.7085_PRO_14_med.jpeg\",\"cat\":\"1595848147.7085_PRO_14_cat.jpeg\",\"small\":\"1595848147.7085_PRO_14_small.jpeg\",\"large\":\"1595848147.7085_PRO_14_large.jpeg\",\"size\":34486},{\"name\":\"1595848154.0146_PRO_14.jpeg\",\"thumb\":\"1595848154.0146_PRO_14_thumb.jpeg\",\"medium\":\"1595848154.0146_PRO_14_med.jpeg\",\"cat\":\"1595848154.0146_PRO_14_cat.jpeg\",\"small\":\"1595848154.0146_PRO_14_small.jpeg\",\"large\":\"1595848154.0146_PRO_14_large.jpeg\",\"size\":41560}]', '699', 650, '1', 1, NULL, NULL, '2020-07-27 11:08:30.000000'),
(15, 'Designer Loafers For Men', 'fsd', 1, 6, '[{\"name\":\"1595848391.5959_PRO_15.jpeg\",\"thumb\":\"1595848391.5959_PRO_15_thumb.jpeg\",\"medium\":\"1595848391.5959_PRO_15_med.jpeg\",\"cat\":\"1595848391.5959_PRO_15_cat.jpeg\",\"small\":\"1595848391.5959_PRO_15_small.jpeg\",\"large\":\"1595848391.5959_PRO_15_large.jpeg\",\"size\":39823},{\"name\":\"1595848397.7262_PRO_15.jpeg\",\"thumb\":\"1595848397.7262_PRO_15_thumb.jpeg\",\"medium\":\"1595848397.7262_PRO_15_med.jpeg\",\"cat\":\"1595848397.7262_PRO_15_cat.jpeg\",\"small\":\"1595848397.7262_PRO_15_small.jpeg\",\"large\":\"1595848397.7262_PRO_15_large.jpeg\",\"size\":40206}]', '285', 250, '1', 1, NULL, NULL, '2020-07-27 11:12:32.000000'),
(16, 'Tapered Fit Men Grey Jeans', 'dsgfsd', 1, 5, '[{\"name\":\"1595848579.6397_PRO_16.jpeg\",\"thumb\":\"1595848579.6397_PRO_16_thumb.jpeg\",\"medium\":\"1595848579.6397_PRO_16_med.jpeg\",\"cat\":\"1595848579.6397_PRO_16_cat.jpeg\",\"small\":\"1595848579.6397_PRO_16_small.jpeg\",\"large\":\"1595848579.6397_PRO_16_large.jpeg\",\"size\":29113},{\"name\":\"1595848584.0858_PRO_16.jpeg\",\"thumb\":\"1595848584.0858_PRO_16_thumb.jpeg\",\"medium\":\"1595848584.0858_PRO_16_med.jpeg\",\"cat\":\"1595848584.0858_PRO_16_cat.jpeg\",\"small\":\"1595848584.0858_PRO_16_small.jpeg\",\"large\":\"1595848584.0858_PRO_16_large.jpeg\",\"size\":31200}]', '1050', 1000, '1', 1, NULL, NULL, '2020-07-27 11:16:05.000000'),
(17, 'Men Solid Formal Shirt', 'dgdfg', 1, 3, '[{\"name\":\"1595848732.8307_PRO_17.jpeg\",\"thumb\":\"1595848732.8307_PRO_17_thumb.jpeg\",\"medium\":\"1595848732.8307_PRO_17_med.jpeg\",\"cat\":\"1595848732.8307_PRO_17_cat.jpeg\",\"small\":\"1595848732.8307_PRO_17_small.jpeg\",\"large\":\"1595848732.8307_PRO_17_large.jpeg\",\"size\":33039},{\"name\":\"1595848739.4446_PRO_17.jpeg\",\"thumb\":\"1595848739.4446_PRO_17_thumb.jpeg\",\"medium\":\"1595848739.4446_PRO_17_med.jpeg\",\"cat\":\"1595848739.4446_PRO_17_cat.jpeg\",\"small\":\"1595848739.4446_PRO_17_small.jpeg\",\"large\":\"1595848739.4446_PRO_17_large.jpeg\",\"size\":30877}]', '569', 500, '1', 1, NULL, NULL, '2020-07-27 11:17:58.000000');
COMMIT;
